Train an isoTWAS model • isotwas
…
Let’s take a look at what a sample model looks like:

model_isotwas = readRDS(system.file("extdata", "model_example.RDS", package = "isotwas"))
class(model_isotwas)
#> [1] "list"
length(model_isotwas)
#> [1] 2
names(model_isotwas)
#> [1] "Model" "R2"
model_isotwas$Model[[1]]
#> $Transcript
#> [1] "Isoform1"
#> 
#> $Model
#> # A tibble: 187 × 2
#>    SNP        Weight
#>    <chr>       <dbl>
#>  1 SNP10  -0.0000957
#>  2 SNP19  -0.00158  
#>  3 SNP80  -0.00375  
#>  4 SNP89  -0.000884 
#>  5 SNP94  -0.00504  
#>  6 SNP124  0.00586  
#>  7 SNP195 -0.0201   
#>  8 SNP232 -0.00627  
#>  9 SNP233  0.000960 
#> 10 SNP261 -0.00688  
#> # ℹ 177 more rows
…
This model object is a list with a Model and a
R2 slot. The Model slot stores a list of
models for each isoform.

We can convert this model from a list to a tibble using
the convert_model() function. Make sure you have an
annotation object to have position and REF/ALT allele information.

model_tsv = convert_model(model_isotwas,
                          snp_annot = snps$map,
                          snp_var = 'marker.ID')
model_tsv
#> # A tibble: 700 × 10
#>    SNP        Weight Transcript    R2  R2.P chromosome genetic.dist physical.pos
#>    <chr>       <dbl> <chr>      <dbl> <dbl>      <int>        <int>        <int>
#>  1 SNP10    -9.57e-5 Isoform1   0.317     0          1            0        10099
#>  2 SNP100   -2.42e-3 Isoform3   0.425     0          1            0       100107
#>  3 SNP1009   2.15e-3 Isoform3   0.425     0          1            0      1009108
#>  4 SNP101    8.68e-3 Isoform2   0.463     0          1            0       101086
#>  5 SNP1012  -1.99e-2 Isoform1   0.317     0          1            0      1012093
#>  6 SNP1017  -7.31e-3 Isoform2   0.463     0          1            0      1017093
#>  7 SNP1020   4.89e-3 Isoform2   0.463     0          1            0      1020103
#>  8 SNP1025   3.36e-2 Isoform1   0.317     0          1            0      1025113
#>  9 SNP103   -5.00e-2 Isoform2   0.463     0          1            0       103078
#> 10 SNP1042  -1.09e-2 Isoform2   0.463     0          1            0      1042088
#> # ℹ 690 more rows
#> # ℹ 2 more variables: allele1 <chr>, allele2 <chr>
…
